{
  "project_info": {
    "project_id": "librarytesting-1219",
    "project_number": "63824747539",
    "name": "LibraryTesting"
  },
  "client": [
    {
      "client_info": {
        "mobilesdk_app_id": "1:63824747539:android:79504dc301789a60",
        "client_id": "android:com.example.manoj.librarycreate",
        "client_type": 1,
        "android_client_info": {
          "package_name": "com.example.manoj.librarycreate"
        }
      },
      "oauth_client": [
        {
          "client_id": "63824747539-apmqaqg9l0p64cvhnmujj8a3kld5g9kp.apps.googleusercontent.com",
          "client_type": 1,
          "android_info": {
            "package_name": "com.example.manoj.librarycreate",
            "certificate_hash": "AEFF97C414E4BBC5E19D0E1AFA8FE5CBC1E38A52"
          }
        },
        {
          "client_id": "63824747539-r3kdq5be1jrivegq69jtkcqriurlj0le.apps.googleusercontent.com",
          "client_type": 3
        }
      ],
      "api_key": [],
      "services": {
        "analytics_service": {
          "status": 1
        },
        "cloud_messaging_service": {
          "status": 1,
          "apns_config": []
        },
        "appinvite_service": {
          "status": 1,
          "other_platform_oauth_client": []
        },
        "google_signin_service": {
          "status": 2
        },
        "ads_service": {
          "status": 1
        }
      }
    }
  ],
  "client_info": [],
  "ARTIFACT_VERSION": "1"
}